TestCounterOprLevel/targets/Simulation.vcd
$date
	2023-03-28.20:03:58
$end
$version
	Novakod Studio 2018.
$end
$comment
    Port Identifier:
	     >? Input  Port
	     <? Output Port
	     /? Input  Event Port
	     \? Output Event Port
$end
$timescale
	1 ns
$end
$scope module top $end
    $var
        reg 3 >! iOpr
    $end
    $var
        reg 8 >" iLoadValue
    $end
    $var
        reg 8 <! oValue
    $end
$upscope $end $enddefinitions $end


#0
b10 >!
b10 >"
b0 <!
#2
#20
b1 <!
#22
#40
b10 <!
#42
#60
b11 <!
#62
#80
b100 <!
#82
#100
b101 <!
#102
#120
b110 <!
#122
#140
b111 <!
#142
#160
b1000 <!
#162
#180
b1001 <!
#182
#200
b1010 <!
#202
#220
b11 >!
b1011 <!
#222
#240
b1010 <!
#242
#260
b1001 <!
#262
#280
b1000 <!
#282
#300
b111 <!
#302
#320
b1 >!
b110 <!
#322
#340
b10 >!
b0 <!
#342
#360
b1 <!
#362
#380
b10 <!
#382
#400
b11 <!
#402
#420
b100 <!
#422
#440
b101 <!
#442
#460
b100 >!
b110 <!
#462
#480
b10 >!
b10 <!
#482
#500
b11 <!
#502
#520
b100 <!
#522
#540
b101 <!
#542
#560
b110 <!
#562
#580
b111 <!
#582
#600
b1 >!
b1000 <!
#602
#620
b0 >!
b0 <!
